<?xml version="1.0" encoding="UTF-8"?>
<CustomTab xmlns="http://soap.sforce.com/2006/04/metadata">
    <label>MKT PLAN TOOL</label>
    <mobileReady>false</mobileReady>
    <motif>Custom85: Real Estate Sign</motif>
    <page>CPT_CMT</page>
</CustomTab>
