<?xml version="1.0" encoding="UTF-8"?>
<CustomTab xmlns="http://soap.sforce.com/2006/04/metadata">
    <description>Eventforce - Events Home</description>
    <label>Events Home</label>
    <mobileReady>false</mobileReady>
    <motif>Custom45: Ticket</motif>
    <page>efEventforceHome</page>
</CustomTab>
