<?xml version="1.0" encoding="UTF-8"?>
<CustomTab xmlns="http://soap.sforce.com/2006/04/metadata">
    <label>Gsnap</label>
    <mobileReady>false</mobileReady>
    <motif>Custom38: Camera</motif>
    <page>JBCXM__Gsnap</page>
</CustomTab>
