<?xml version="1.0" encoding="UTF-8"?>
<CustomTab xmlns="http://soap.sforce.com/2006/04/metadata">
    <description>Leads Console</description>
    <frameHeight>600</frameHeight>
    <hasSidebar>false</hasSidebar>
    <label>Leads Console</label>
    <mobileReady>false</mobileReady>
    <motif>Custom11: Star</motif>
    <url>/00Q/o?isdtp=vw</url>
    <urlEncodingKey>UTF-8</urlEncodingKey>
</CustomTab>
