<?xml version="1.0" encoding="UTF-8"?>
<CustomTab xmlns="http://soap.sforce.com/2006/04/metadata">
    <description>NEW partner portal tab</description>
    <label>Partner Network</label>
    <mobileReady>false</mobileReady>
    <motif>Custom49: CD/DVD</motif>
    <page>ppQlikPartnerNetwork</page>
</CustomTab>
