<?xml version="1.0" encoding="UTF-8"?>
<CustomTab xmlns="http://soap.sforce.com/2006/04/metadata">
    <description>NetSuite Quote Approvals</description>
    <label>Quote Approvals</label>
    <mobileReady>false</mobileReady>
    <motif>Custom62: Chalkboard</motif>
    <page>NSQuoteApprovals</page>
</CustomTab>
