<?xml version="1.0" encoding="UTF-8"?>
<CustomTab xmlns="http://soap.sforce.com/2006/04/metadata">
    <customObject>true</customObject>
    <description>QVM Product Data custom tab.</description>
    <mobileReady>false</mobileReady>
    <motif>Custom87: Safe</motif>
</CustomTab>
