<?xml version="1.0" encoding="UTF-8"?>
<CustomTab xmlns="http://soap.sforce.com/2006/04/metadata">
    <description>Sales Visibility</description>
    <label>Sales Visibility</label>
    <mobileReady>false</mobileReady>
    <motif>Custom100: TV Widescreen</motif>
    <page>Sales_Visibility</page>
</CustomTab>
