<?xml version="1.0" encoding="UTF-8"?>
<CustomTab xmlns="http://soap.sforce.com/2006/04/metadata">
    <customObject>true</customObject>
    <description>TOS Coupon requests for customer discounting</description>
    <mobileReady>false</mobileReady>
    <motif>Custom42: Treasure chest</motif>
</CustomTab>
